<svg xmlns="http://www.w3.org/2000/svg" width="8" height="14" viewBox="0 0 8 14">
  <g id="ic-arrow-next" transform="translate(8) rotate(90)">
    <g id="Group_1" data-name="Group 1" transform="translate(0)">
      <path id="Path_1" data-name="Path 1" d="M13.783,108.029l-.459.447a.787.787,0,0,1-1.084,0L7,103.415l-5.237,5.067a.787.787,0,0,1-1.084,0l-.459-.444a.725.725,0,0,1,0-1.048l6.241-6.054A.794.794,0,0,1,7,100.7H7a.794.794,0,0,1,.539.238l6.233,6.038A.736.736,0,0,1,14,107.5a.727.727,0,0,1-.217.526Z" transform="translate(0 -100.698)"/>
    </g>
  </g>
</svg>
